exp/A3/day1/switch/para_VDD/SINI0015.CSV

ModelName,WJ314
FileVersion,1
Acquisition Time,2016/06/27 14:57:58
Time/div(second),20E-09
Delay(second),0.0000E+00
Delta(second),1E-09
Acquisition Mode,Normal
Trigger Address,100
CH1 Display,On
CH2 Display,On
CH3 Display,Off
CH4 Display,Off
CH1 Volt/div,1.00E+00
CH2 Volt/div,1.00E+00
CH3 Volt/div,100E-03
CH4 Volt/div,100E-03
CH1 Offset,-1.00E+00
CH2 Offset,-1.00E+00
CH3 Offset,-52.0E-03
CH4 Offset,-152E-03
CH1 Coupling,DC1M
CH2 Coupling,DC1M
CH3 Coupling,DC1M
CH4 Coupling,DC1M
CH1 Bandwidth,Full
CH2 Bandwidth,Full
CH3 Bandwidth,Full
CH4 Bandwidth,Full
Points,201
Ch1 V,Ch2 V,Ch3 V,Ch4 V
2.00E+00,-3.12E-02,,
2.00E+00,-3.12E-02,,
2.00E+00,-3.12E-02,,
2.00E+00,0.00E+00,,
2.00E+00,0.00E+00,,
2.00E+00,-3.12E-02,,
2.03E+00,-3.12E-02,,
2.00E+00,0.00E+00,,
2.00E+00,0.00E+00,,
2.03E+00,0.00E+00,,
2.00E+00,0.00E+00,,
2.00E+00,0.00E+00,,
2.00E+00,-3.12E-02,,
2.00E+00,0.00E+00,,
2.00E+00,-3.12E-02,,
1.96E+00,0.00E+00,,
2.00E+00,0.00E+00,,
2.00E+00,0.00E+00,,
2.00E+00,-3.12E-02,,
2.00E+00,0.00E+00,,
2.00E+00,0.00E+00,,
2.00E+00,0.00E+00,,
2.00E+00,0.00E+00,,
2.00E+00,0.00E+00,,
2.03E+00,0.00E+00,,
2.00E+00,0.00E+00,,
2.00E+00,0.00E+00,,
2.00E+00,0.00E+00,,
2.00E+00,0.00E+00,,
2.00E+00,0.00E+00,,
2.00E+00,0.00E+00,,
2.00E+00,0.00E+00,,
2.00E+00,0.00E+00,,
2.00E+00,0.00E+00,,
2.00E+00,0.00E+00,,
2.00E+00,0.00E+00,,
2.00E+00,0.00E+00,,
2.00E+00,0.00E+00,,
2.00E+00,0.00E+00,,
2.00E+00,0.00E+00,,
2.00E+00,0.00E+00,,
2.00E+00,0.00E+00,,
2.00E+00,0.00E+00,,
2.00E+00,0.00E+00,,
2.00E+00,0.00E+00,,
2.00E+00,0.00E+00,,
2.00E+00,0.00E+00,,
2.00E+00,0.00E+00,,
2.00E+00,0.00E+00,,
2.00E+00,0.00E+00,,
2.00E+00,0.00E+00,,
2.00E+00,0.00E+00,,
2.00E+00,0.00E+00,,
2.00E+00,0.00E+00,,
2.00E+00,0.00E+00,,
2.00E+00,0.00E+00,,
2.00E+00,0.00E+00,,
1.96E+00,0.00E+00,,
2.00E+00,0.00E+00,,
1.96E+00,0.00E+00,,
2.00E+00,0.00E+00,,
1.96E+00,0.00E+00,,
2.00E+00,0.00E+00,,
2.00E+00,0.00E+00,,
2.00E+00,0.00E+00,,
2.00E+00,0.00E+00,,
2.00E+00,0.00E+00,,
2.00E+00,0.00E+00,,
2.00E+00,0.00E+00,,
1.96E+00,-3.12E-02,,
2.00E+00,0.00E+00,,
1.96E+00,-3.12E-02,,
2.00E+00,-3.12E-02,,
2.00E+00,0.00E+00,,
2.00E+00,0.00E+00,,
2.00E+00,0.00E+00,,
2.00E+00,-3.12E-02,,
2.00E+00,0.00E+00,,
2.00E+00,-3.12E-02,,
2.00E+00,-3.12E-02,,
2.00E+00,0.00E+00,,
2.00E+00,0.00E+00,,
2.00E+00,0.00E+00,,
2.00E+00,0.00E+00,,
2.00E+00,0.00E+00,,
2.00E+00,0.00E+00,,
2.00E+00,0.00E+00,,
2.00E+00,0.00E+00,,
2.00E+00,0.00E+00,,
2.00E+00,0.00E+00,,
2.00E+00,-3.12E-02,,
2.00E+00,0.00E+00,,
1.96E+00,0.00E+00,,
1.90E+00,0.00E+00,,
1.84E+00,-3.12E-02,,
1.75E+00,0.00E+00,,
1.65E+00,-3.12E-02,,
1.50E+00,-3.12E-02,,
1.31E+00,-3.12E-02,,
1.15E+00,-3.12E-02,,
9.68E-01,-6.25E-02,,
8.12E-01,-6.25E-02,,
6.56E-01,-6.25E-02,,
5.62E-01,-3.12E-02,,
5.00E-01,-6.25E-02,,
4.06E-01,-3.12E-02,,
3.75E-01,-6.25E-02,,
3.12E-01,-3.12E-02,,
2.81E-01,-3.12E-02,,
2.50E-01,-3.12E-02,,
2.18E-01,0.00E+00,,
1.87E-01,0.00E+00,,
1.56E-01,0.00E+00,,
1.56E-01,0.00E+00,,
9.37E-02,0.00E+00,,
9.37E-02,0.00E+00,,
6.25E-02,0.00E+00,,
6.25E-02,3.12E-02,,
3.12E-02,9.37E-02,,
6.25E-02,2.18E-01,,
6.25E-02,3.12E-01,,
6.25E-02,4.37E-01,,
6.25E-02,5.31E-01,,
6.25E-02,6.87E-01,,
6.25E-02,7.50E-01,,
9.37E-02,8.75E-01,,
6.25E-02,9.37E-01,,
6.25E-02,1.03E+00,,
3.12E-02,1.12E+00,,
6.25E-02,1.21E+00,,
3.12E-02,1.28E+00,,
0.00E+00,1.37E+00,,
0.00E+00,1.43E+00,,
0.00E+00,1.53E+00,,
0.00E+00,1.56E+00,,
0.00E+00,1.65E+00,,
0.00E+00,1.68E+00,,
0.00E+00,1.75E+00,,
0.00E+00,1.78E+00,,
3.12E-02,1.87E+00,,
3.12E-02,1.87E+00,,
3.12E-02,1.93E+00,,
0.00E+00,1.96E+00,,
0.00E+00,1.96E+00,,
-3.12E-02,1.93E+00,,
-3.12E-02,1.87E+00,,
-6.25E-02,1.75E+00,,
-6.25E-02,1.68E+00,,
-6.25E-02,1.59E+00,,
-3.12E-02,1.56E+00,,
0.00E+00,1.56E+00,,
3.12E-02,1.62E+00,,
3.12E-02,1.65E+00,,
6.25E-02,1.78E+00,,
3.12E-02,1.84E+00,,
3.12E-02,1.93E+00,,
3.12E-02,1.96E+00,,
0.00E+00,2.00E+00,,
0.00E+00,2.03E+00,,
0.00E+00,2.09E+00,,
-3.12E-02,2.12E+00,,
0.00E+00,2.18E+00,,
-3.12E-02,2.21E+00,,
0.00E+00,2.28E+00,,
-3.12E-02,2.31E+00,,
0.00E+00,2.31E+00,,
-3.12E-02,2.31E+00,,
-3.12E-02,2.31E+00,,
-3.12E-02,2.31E+00,,
-3.12E-02,2.34E+00,,
-3.12E-02,2.34E+00,,
-3.12E-02,2.37E+00,,
-3.12E-02,2.37E+00,,
-3.12E-02,2.37E+00,,
-6.25E-02,2.37E+00,,
-3.12E-02,2.37E+00,,
-3.12E-02,2.34E+00,,
-3.12E-02,2.34E+00,,
-3.12E-02,2.34E+00,,
0.00E+00,2.31E+00,,
-3.12E-02,2.28E+00,,
-3.12E-02,2.25E+00,,
-3.12E-02,2.21E+00,,
-3.12E-02,2.21E+00,,
-3.12E-02,2.18E+00,,
-3.12E-02,2.18E+00,,
-3.12E-02,2.15E+00,,
-3.12E-02,2.15E+00,,
-3.12E-02,2.12E+00,,
-3.12E-02,2.12E+00,,
0.00E+00,2.06E+00,,
0.00E+00,2.06E+00,,
0.00E+00,2.03E+00,,
0.00E+00,2.03E+00,,
-3.12E-02,2.00E+00,,
0.00E+00,1.96E+00,,
0.00E+00,1.93E+00,,
0.00E+00,1.93E+00,,
-3.12E-02,1.90E+00,,
0.00E+00,1.90E+00,,
-3.12E-02,1.87E+00,,
